Group rows using group_by | Data Analysis: Tidying and Wrangling Data in R
…
LGA
104662

We see that Newark ("EWR") had the most flights departing in 2013 followed by "JFK" and lastly by LaGuardia ("LGA"). Note there is a subtle but important difference between sum() and n(). While sum() simply adds up a large set of numbers, the latter counts the number of times each of many different values occur.

Grouping by more than one variable

You are not limited to grouping by one variable! Say you wanted to know the number of flights leaving each of the three New York City airports for each month, we can also group by a second variable month: group_by(origin, month).

by_origin_monthly <- flights %>% 
  group_by(origin, month) %>% 
  summarize(count = n())
by_origin_monthly

# A tibble: 36 x 3
# Groups:   origin [3]
   origin month count
   <chr>  <int> <int>
 1 EWR        1  9893
 2 EWR        2  9107
 3 EWR        3 10420
 4 EWR        4 10531
 5 EWR        5 10592
 6 EWR        6 10175
 7 EWR        7 10475
 8 EWR        8 10359
 9 EWR        9  9550
10 EWR       10 10104
# ... with 26 more rows
# i Use `print(n = ...)` to see more rows

We see there are 36 rows to by_origin_monthly because there are 12 months times 3 airports (EWR, JFK, and LGA). Let's now pose two questions. First, what if we reverse the order of the grouping i.e. we group_by(month, origin)?

by_monthly_origin <- flights %>% 
  group_by(month, origin) %>% 
  summarize(count = n())
by_monthly_origin

# A tibble: 36 x 3
# Groups:   month [12]
   month origin count
   <int> <chr>  <int>
 1     1 EWR     9893
 2     1 JFK     9161
 3     1 LGA     7950
 4     2 EWR     9107
 5     2 JFK     8421
 6     2 LGA     7423
 7     3 EWR    10420
 8     3 JFK     9697
 9     3 LGA     8717
10     4 EWR    10531
# ... with 26 more rows
# i Use `print(n = ...)` to see more rows
…
Hint

Make sure to group_by the appropriate variables first, before summarizeing the mean and standard deviation.

Solution

summary_temp_by_day <- weather %>% 
  group_by(year, month, day) %>% 
  summarize(mean = mean(temp, na.rm = TRUE),
            std_dev = sd(temp, na.rm = TRUE))
summary_temp_by_day

# A tibble: 364 x 5
# Groups:   year, month [12]
    year month   day  mean std_dev
   <int> <int> <int> <dbl>   <dbl>
 1  2013     1     1  37.0    4.00
 2  2013     1     2  28.7    3.45
 3  2013     1     3  30.0    2.58
 4  2013     1     4  34.9    2.45
 5  2013     1     5  37.2    4.01
 6  2013     1     6  40.1    4.40
 7  2013     1     7  40.6    3.68
 8  2013     1     8  40.1    5.77
 9  2013     1     9  43.2    5.40
10  2013     1    10  43.8    2.95
# ... with 354 more rows
# i Use `print(n = ...)` to see more rows

Task
Recreate by_monthly_origin, but instead of grouping via group_by(origin, month), group variables in a different order group_by(month, origin). What differs in the resulting data set?

Solution

by_monthly_origin <- flights %>% 
  group_by(month, origin) %>% 
  summarize(count = n())
by_monthly_origin

# A tibble: 36 x 3
# Groups:   month [12]
   month origin count
   <int> <chr>  <int>
 1     1 EWR     9893
 2     1 JFK     9161
 3     1 LGA     7950
 4     2 EWR     9107
 5     2 JFK     8421
 6     2 LGA     7423
 7     3 EWR    10420
 8     3 JFK     9697
 9     3 LGA     8717
10     4 EWR    10531
# ... with 26 more rows
# i Use `print(n = ...)` to see more rows
…
Task
How could we identify how many flights left each of the three airports for each carrier?

Hint

Summarize the count from each airport using the n() function, which counts rows.

Solution

count_flights_by_airport <- flights %>% 
  group_by(origin, carrier) %>% 
  summarize(count=n())
count_flights_by_airport

# A tibble: 35 x 3
# Groups:   origin [3]
   origin carrier count
   <chr>  <chr>   <int>
 1 EWR    9E       1268
 2 EWR    AA       3487
 3 EWR    AS        714
 4 EWR    B6       6557
 5 EWR    DL       4342
 6 EWR    EV      43939
 7 EWR    MQ       2276
 8 EWR    OO          6
 9 EWR    UA      46087
10 EWR    US       4405
# ... with 25 more rows
# i Use `print(n = ...)` to see more rows
…
