Importing spreadsheets into R | Data Analysis: Tidying and Wrangling Data in R
…
An Excel .xlsx file. This format is based on Microsoft's proprietary Excel software. As opposed to a bare-bones .csv files, .xlsx Excel files contain a lot of metadata, i.e. data about the data. Examples include the use of bold and italic fonts, colored cells, different column widths, and formula macros etc.

Google Sheets allows you to download your data in both comma separated values .csv and Excel .xlsx formats: Go to the Google Sheets menu bar -> File -> Download as -> Select "Microsoft Excel" or "Comma-separated values".

We'll cover two methods for importing data in R: one using the R console and the other using RStudio's graphical interface.

Method 1: From the console

First, let's download a Comma Separated Values (CSV) file of ratings of the level of democracy in different countries spanning 1952 to 1992: https://moderndive.com/data/dem_score.csv. We use the read_csv() function from the readr package to read it off the web and then take a look.

library(readr)
dem_score <- read_csv("https://moderndive.com/data/dem_score.csv")
dem_score

# A tibble: 96 x 10
   country    `1952` `1957` `1962` `1967` `1972` `1977` `1982` `1987` `1992`
   <chr>       <dbl>  <dbl>  <dbl>  <dbl>  <dbl>  <dbl>  <dbl>  <dbl>  <dbl>
 1 Albania        -9     -9     -9     -9     -9     -9     -9     -9      5
 2 Argentina      -9     -1     -1     -9     -9     -9     -8      8      7
 3 Armenia        -9     -7     -7     -7     -7     -7     -7     -7      7
 4 Australia      10     10     10     10     10     10     10     10     10
 5 Austria        10     10     10     10     10     10     10     10     10
 6 Azerbaijan     -9     -7     -7     -7     -7     -7     -7     -7      1
 7 Belarus        -9     -7     -7     -7     -7     -7     -7     -7      7
 8 Belgium        10     10     10     10     10     10     10     10     10
 9 Bhutan        -10    -10    -10    -10    -10    -10    -10    -10    -10
10 Bolivia        -4     -3     -3     -4     -7     -7      8      9      9
# ... with 86 more rows
# i Use `print(n = ...)` to see more rows
…
