Joining data frames | Data Analysis: Tidying and Wrangling Data in R
…
names(flights_joined)

 [1] "year"           "month"          "day"            "dep_time"      
 [5] "sched_dep_time" "dep_delay"      "arr_time"       "sched_arr_time"
 [9] "arr_delay"      "carrier"        "flight"         "tailnum"       
[13] "origin"         "dest"           "air_time"       "distance"      
[17] "hour"           "minute"         "time_hour"      "gain"          
[21] "hours"          "gain_per_hour"  "name"          

flights_joined %>% select(flight, carrier, name) 

# A tibble: 336,776 x 3
   flight carrier name                    
    <int> <chr>   <chr>                   
 1   1545 UA      United Air Lines Inc.   
 2   1714 UA      United Air Lines Inc.   
 3   1141 AA      American Airlines Inc.  
 4    725 B6      JetBlue Airways         
 5    461 DL      Delta Air Lines Inc.    
 6   1696 UA      United Air Lines Inc.   
 7    507 B6      JetBlue Airways         
 8   5708 EV      ExpressJet Airlines Inc.
 9     79 B6      JetBlue Airways         
10    301 AA      American Airlines Inc.  
# ... with 336,766 more rows
# i Use `print(n = ...)` to see more rows
…
flights %>% 
  inner_join(airports, by = c("dest" = "faa"))

Let's construct the sequence of commands that computes the number of flights from NYC to each destination, but also includes information about each destination airport:

named_dests <- flights %>%
  group_by(dest) %>%
  summarize(num_flights = n()) %>%
  arrange(desc(num_flights)) %>%
  inner_join(airports, by = c("dest" = "faa")) %>%
  rename(airport_name = name)
named_dests

# A tibble: 101 x 9
   dest  num_flights airport_name             lat    lon   alt    tz dst   tzone
   <chr>       <int> <chr>                  <dbl>  <dbl> <dbl> <dbl> <chr> <chr>
 1 ORD         17283 Chicago Ohare Intl      42.0  -87.9   668    -6 A     Amer~
 2 ATL         17215 Hartsfield Jackson At~  33.6  -84.4  1026    -5 A     Amer~
 3 LAX         16174 Los Angeles Intl        33.9 -118.    126    -8 A     Amer~
 4 BOS         15508 General Edward Lawren~  42.4  -71.0    19    -5 A     Amer~
 5 MCO         14082 Orlando Intl            28.4  -81.3    96    -5 A     Amer~
 6 CLT         14064 Charlotte Douglas Intl  35.2  -80.9   748    -5 A     Amer~
 7 SFO         13331 San Francisco Intl      37.6 -122.     13    -8 A     Amer~
 8 FLL         12055 Fort Lauderdale Holly~  26.1  -80.2     9    -5 A     Amer~
 9 MIA         11728 Miami Intl              25.8  -80.3     8    -5 A     Amer~
10 DCA          9705 Ronald Reagan Washing~  38.9  -77.0    15    -5 A     Amer~
# ... with 91 more rows
# i Use `print(n = ...)` to see more rows
…
