Other verbs | Data Analysis: Tidying and Wrangling Data in R
…
However, say you only want to consider two of these variables, say carrier and flight. You can select these:

flights %>% 
  select(carrier, flight)

# A tibble: 336,776 x 2
   carrier flight
   <chr>    <int>
 1 UA        1545
 2 UA        1714
 3 AA        1141
 4 B6         725
 5 DL         461
 6 UA        1696
 7 B6         507
 8 EV        5708
 9 B6          79
10 AA         301
# ... with 336,766 more rows
# i Use `print(n = ...)` to see more rows
…
 [1] "month"          "day"            "dep_time"       "sched_dep_time"
 [5] "dep_delay"      "arr_time"       "sched_arr_time" "arr_delay"     
 [9] "carrier"        "flight"         "tailnum"        "origin"        
[13] "dest"           "air_time"       "distance"       "hour"          
[17] "minute"         "time_hour"      "gain"           "hours"         
[21] "gain_per_hour" 

Or we could specify a ranges of columns:

flight_arr_times <- flights %>% 
  select(month:dep_time, arr_time:sched_arr_time)
flight_arr_times

# A tibble: 336,776 x 5
   month   day dep_time arr_time sched_arr_time
   <int> <int>    <int>    <int>          <int>
 1     1     1      517      830            819
 2     1     1      533      850            830
 3     1     1      542      923            850
 4     1     1      544     1004           1022
 5     1     1      554      812            837
 6     1     1      554      740            728
 7     1     1      555      913            854
 8     1     1      557      709            723
 9     1     1      557      838            846
10     1     1      558      753            745
# ... with 336,766 more rows
# i Use `print(n = ...)` to see more rows
…
Task
What are some ways to select all three of the dest, air_time, and distance variables from flights? Give the code showing how to do this in at least three different ways.

Solution

flights %>% 
  select(dest, air_time, distance)

# A tibble: 336,776 x 3
   dest  air_time distance
   <chr>    <dbl>    <dbl>
 1 IAH        227     1400
 2 IAH        227     1416
 3 MIA        160     1089
 4 BQN        183     1576
 5 ATL        116      762
 6 ORD        150      719
 7 FLL        158     1065
 8 IAD         53      229
 9 MCO        140      944
10 ORD        138      733
# ... with 336,766 more rows
# i Use `print(n = ...)` to see more rows

flights %>% 
  select(dest:distance)

# A tibble: 336,776 x 3
   dest  air_time distance
   <chr>    <dbl>    <dbl>
 1 IAH        227     1400
 2 IAH        227     1416
 3 MIA        160     1089
 4 BQN        183     1576
 5 ATL        116      762
 6 ORD        150      719
 7 FLL        158     1065
 8 IAD         53      229
 9 MCO        140      944
10 ORD        138      733
# ... with 336,766 more rows
# i Use `print(n = ...)` to see more rows

flights %>% 
  select(-year, -month, -day, -dep_time, -sched_dep_time, -dep_delay, -arr_time,
         -sched_arr_time, -arr_delay, -carrier, -flight, -tailnum, -origin, 
         -hour, -minute, -time_hour)

# A tibble: 336,776 x 6
   dest  air_time distance  gain hours gain_per_hour
   <chr>    <dbl>    <dbl> <dbl> <dbl>         <dbl>
 1 IAH        227     1400    -9 3.78          -2.38
 2 IAH        227     1416   -16 3.78          -4.23
 3 MIA        160     1089   -31 2.67         -11.6 
 4 BQN        183     1576    17 3.05           5.57
 5 ATL        116      762    19 1.93           9.83
 6 ORD        150      719   -16 2.5           -6.4 
 7 FLL        158     1065   -24 2.63          -9.11
 8 IAD         53      229    11 0.883         12.5 
 9 MCO        140      944     5 2.33           2.14
10 ORD        138      733   -10 2.3           -4.35
# ... with 336,766 more rows
# i Use `print(n = ...)` to see more rows

Task
How could one use starts_with, ends_with, and contains to select columns from the flights data frame? Provide three different examples in total: one for starts_with, one for ends_with, and one for contains.

Solution

# Anything that starts with "d"
flights %>% 
  select(starts_with("d"))

# A tibble: 336,776 x 5
     day dep_time dep_delay dest  distance
   <int>    <int>     <dbl> <chr>    <dbl>
 1     1      517         2 IAH       1400
 2     1      533         4 IAH       1416
 3     1      542         2 MIA       1089
 4     1      544        -1 BQN       1576
 5     1      554        -6 ATL        762
 6     1      554        -4 ORD        719
 7     1      555        -5 FLL       1065
 8     1      557        -3 IAD        229
 9     1      557        -3 MCO        944
10     1      558        -2 ORD        733
# ... with 336,766 more rows
# i Use `print(n = ...)` to see more rows

# Anything related to delays:
flights %>% 
  select(ends_with("delay"))

# A tibble: 336,776 x 2
   dep_delay arr_delay
       <dbl>     <dbl>
 1         2        11
 2         4        20
 3         2        33
 4        -1       -18
 5        -6       -25
 6        -4        12
 7        -5        19
 8        -3       -14
 9        -3        -8
10        -2         8
# ... with 336,766 more rows
# i Use `print(n = ...)` to see more rows

# Anything related to departures:
flights %>% 
  select(contains("dep"))

# A tibble: 336,776 x 3
   dep_time sched_dep_time dep_delay
      <int>          <int>     <dbl>
 1      517            515         2
 2      533            529         4
 3      542            540         2
 4      544            545        -1
 5      554            600        -6
 6      554            558        -4
 7      555            600        -5
 8      557            600        -3
 9      557            600        -3
10      558            600        -2
# ... with 336,766 more rows
# i Use `print(n = ...)` to see more rows
…
