Summary | Data Analysis: Tidying and Wrangling Data in R
…
Consider the data wrangling verbs in the table above as your toolbox!

If you want to work through it step by step, here are some hints:

Hint 1

Step 1: To compute the available seat miles for a given flight, we need the distance variable from the flights data frame and the seats variable from the planes data frame, necessitating a join by the key variable tailnum. To keep the resulting data frame easy to view, we'll select() only these two variables and carrier.

Solution 1

flights %>% 
  inner_join(planes, by = "tailnum") %>% 
  select(carrier, seats, distance)

# A tibble: 284,170 x 3
   carrier seats distance
   <chr>   <int>    <dbl>
 1 UA        149     1400
 2 UA        149     1416
 3 AA        178     1089
 4 B6        200     1576
 5 DL        178      762
 6 UA        191      719
 7 B6        200     1065
 8 EV         55      229
 9 B6        200      944
10 B6        200     1028
# ... with 284,160 more rows
# i Use `print(n = ...)` to see more rows

Hint 2

Step 2: Now for each flight we can compute the available seat miles ASM by multiplying the number of seats by the distance via a mutate().

Solution 2

flights %>% 
  inner_join(planes, by = "tailnum") %>% 
  select(carrier, seats, distance) %>% 
  mutate(ASM = seats * distance)

# A tibble: 284,170 x 4
   carrier seats distance    ASM
   <chr>   <int>    <dbl>  <dbl>
 1 UA        149     1400 208600
 2 UA        149     1416 210984
 3 AA        178     1089 193842
 4 B6        200     1576 315200
 5 DL        178      762 135636
 6 UA        191      719 137329
 7 B6        200     1065 213000
 8 EV         55      229  12595
 9 B6        200      944 188800
10 B6        200     1028 205600
# ... with 284,160 more rows
# i Use `print(n = ...)` to see more rows
…
